{
    "trace_processor_shell": {
        "linux_arm64": {
            "hash": "283367cdb86d880a764880ef5f865ccf4c7c973b",
            "full_remote_path": "perfetto-luci-artifacts/3b59f000c939bfe4d05267fd68d282ef0b541334/linux-arm64/trace_processor_shell"
        },
        "win": {
            "hash": "5804b6d194c554726237f00739e8c468efbe28c0",
            "full_remote_path": "chromium-telemetry/perfetto_binaries/trace_processor_shell/win/1046bf928b4441cb79549691d76eeabec48e7274/trace_processor_shell.exe"
        },
        "linux_arm": {
            "hash": "e945a99da7a66211f847b8049627bbec846d2d1d",
            "full_remote_path": "perfetto-luci-artifacts/3b59f000c939bfe4d05267fd68d282ef0b541334/linux-arm/trace_processor_shell"
        },
        "mac": {
            "hash": "99dfbd718fb7d22bbf9f1af709a5614b3cc19b47",
            "full_remote_path": "chromium-telemetry/perfetto_binaries/trace_processor_shell/mac/1046bf928b4441cb79549691d76eeabec48e7274/trace_processor_shell"
        },
        "mac_arm64": {
            "hash": "f9caa6dfbdc44573d32a21a9aeeed2058ffc3d68",
            "full_remote_path": "perfetto-luci-artifacts/ea816328b746af31c8b7441db2ae0c3f561e629d/mac-arm64/trace_processor_shell"
        },
        "linux": {
            "hash": "524701dfeed6fa1f92c9e91822b57d95482f0526",
            "full_remote_path": "chromium-telemetry/perfetto_binaries/trace_processor_shell/linux/1046bf928b4441cb79549691d76eeabec48e7274/trace_processor_shell"
        }
    },
    "power_profile.sql": {
        "hash": "5bc5eae952c72d04403409a56838f66da13394d6",
        "full_remote_path": "chrome-telemetry/perfetto_data/power_profile.sql/20200713T171147/power_profile.sql"
    }
}