{
  "android-clang-tidy-rel": {
    "gn_args": {
      "dcheck_always_on": true,
      "debuggable_apks": false,
      "ffmpeg_branding": "Chrome",
      "is_component_build": false,
      "is_debug": false,
      "proprietary_codecs": true,
      "strip_debug_info": true,
      "symbol_level": 0,
      "target_os": "android",
      "treat_warnings_as_errors": false,
      "use_cxx17": true,
      "use_remoteexec": true
    }
  },
  "fuchsia-clang-tidy-rel": {
    "gn_args": {
      "dcheck_always_on": true,
      "is_component_build": false,
      "is_debug": false,
      "symbol_level": 0,
      "target_os": "fuchsia",
      "treat_warnings_as_errors": false,
      "use_cxx17": true,
      "use_remoteexec": true
    }
  },
  "ios-clang-tidy-rel": {
    "gn_args": {
      "dcheck_always_on": false,
      "ios_code_signing_identity_description": "Apple Development",
      "ios_enable_code_signing": false,
      "is_component_build": false,
      "is_debug": false,
      "symbol_level": 0,
      "target_cpu": "arm64",
      "target_environment": "device",
      "target_os": "ios",
      "treat_warnings_as_errors": false,
      "use_cxx17": true,
      "use_goma": true
    }
  },
  "linux-chromeos-clang-tidy-rel": {
    "gn_args": {
      "dcheck_always_on": true,
      "ffmpeg_branding": "ChromeOS",
      "is_component_build": false,
      "is_debug": false,
      "proprietary_codecs": true,
      "symbol_level": 0,
      "target_os": "chromeos",
      "treat_warnings_as_errors": false,
      "use_cxx17": true,
      "use_remoteexec": true
    }
  },
  "linux-clang-tidy-rel": {
    "gn_args": {
      "dcheck_always_on": true,
      "is_component_build": false,
      "is_debug": false,
      "symbol_level": 0,
      "treat_warnings_as_errors": false,
      "use_cxx17": true,
      "use_remoteexec": true
    }
  },
  "linux-lacros-clang-tidy-rel": {
    "gn_args": {
      "also_build_ash_chrome": true,
      "chromeos_is_browser_only": true,
      "dcheck_always_on": true,
      "is_component_build": false,
      "is_debug": false,
      "symbol_level": 0,
      "target_os": "chromeos",
      "treat_warnings_as_errors": false,
      "use_cxx17": true,
      "use_remoteexec": true
    }
  },
  "mac-clang-tidy-rel": {
    "gn_args": {
      "dcheck_always_on": true,
      "is_component_build": false,
      "is_debug": false,
      "symbol_level": 0,
      "treat_warnings_as_errors": false,
      "use_cxx17": true,
      "use_goma": true
    }
  },
  "win10-clang-tidy-rel": {
    "gn_args": {
      "dcheck_always_on": true,
      "is_component_build": false,
      "is_debug": false,
      "symbol_level": 0,
      "treat_warnings_as_errors": false,
      "use_cxx17": true,
      "use_remoteexec": true
    }
  }
}