{
  "gpu-fyi-try-mac-amd-pro-rel": {
    "gn_args": {
      "dcheck_always_on": true,
      "enable_nacl": false,
      "ffmpeg_branding": "Chrome",
      "is_component_build": false,
      "is_debug": false,
      "proprietary_codecs": true,
      "symbol_level": 1,
      "use_remoteexec": true
    }
  },
  "gpu-fyi-try-mac-amd-retina-asan": {
    "gn_args": {
      "dcheck_always_on": true,
      "enable_nacl": false,
      "ffmpeg_branding": "Chrome",
      "is_asan": true,
      "is_component_build": false,
      "is_debug": false,
      "proprietary_codecs": true,
      "symbol_level": 1,
      "use_remoteexec": true
    }
  },
  "gpu-fyi-try-mac-amd-retina-dbg": {
    "gn_args": {
      "enable_nacl": false,
      "ffmpeg_branding": "Chrome",
      "is_component_build": true,
      "is_debug": true,
      "proprietary_codecs": true,
      "symbol_level": 1,
      "use_remoteexec": true
    }
  },
  "gpu-fyi-try-mac-amd-retina-exp": {
    "gn_args": {
      "dcheck_always_on": true,
      "enable_nacl": false,
      "ffmpeg_branding": "Chrome",
      "is_component_build": false,
      "is_debug": false,
      "proprietary_codecs": true,
      "symbol_level": 1,
      "use_remoteexec": true
    }
  },
  "gpu-fyi-try-mac-amd-retina-rel": {
    "gn_args": {
      "dcheck_always_on": true,
      "enable_nacl": false,
      "ffmpeg_branding": "Chrome",
      "is_component_build": false,
      "is_debug": false,
      "proprietary_codecs": true,
      "symbol_level": 1,
      "use_remoteexec": true
    }
  },
  "gpu-fyi-try-mac-arm64-apple-m1-exp": {
    "gn_args": {
      "dcheck_always_on": true,
      "enable_nacl": false,
      "ffmpeg_branding": "Chrome",
      "is_component_build": false,
      "is_debug": false,
      "proprietary_codecs": true,
      "symbol_level": 1,
      "target_cpu": "arm64",
      "use_goma": true
    }
  },
  "gpu-fyi-try-mac-arm64-apple-m1-rel": {
    "gn_args": {
      "dcheck_always_on": true,
      "enable_nacl": false,
      "ffmpeg_branding": "Chrome",
      "is_component_build": false,
      "is_debug": false,
      "proprietary_codecs": true,
      "symbol_level": 1,
      "target_cpu": "arm64",
      "use_remoteexec": true
    }
  },
  "gpu-fyi-try-mac-intel-asan": {
    "gn_args": {
      "dcheck_always_on": true,
      "enable_nacl": false,
      "ffmpeg_branding": "Chrome",
      "is_asan": true,
      "is_component_build": false,
      "is_debug": false,
      "proprietary_codecs": true,
      "symbol_level": 1,
      "use_remoteexec": true
    }
  },
  "gpu-fyi-try-mac-intel-dbg": {
    "gn_args": {
      "enable_nacl": false,
      "ffmpeg_branding": "Chrome",
      "is_component_build": true,
      "is_debug": true,
      "proprietary_codecs": true,
      "symbol_level": 1,
      "use_remoteexec": true
    }
  },
  "gpu-fyi-try-mac-intel-exp": {
    "gn_args": {
      "dcheck_always_on": true,
      "enable_nacl": false,
      "ffmpeg_branding": "Chrome",
      "is_component_build": false,
      "is_debug": false,
      "proprietary_codecs": true,
      "symbol_level": 1,
      "use_remoteexec": true
    }
  },
  "gpu-fyi-try-mac-intel-rel": {
    "gn_args": {
      "dcheck_always_on": true,
      "enable_nacl": false,
      "ffmpeg_branding": "Chrome",
      "is_component_build": false,
      "is_debug": false,
      "proprietary_codecs": true,
      "symbol_level": 1,
      "use_remoteexec": true
    }
  },
  "gpu-fyi-try-mac-nvidia-retina-exp": {
    "gn_args": {
      "dcheck_always_on": true,
      "enable_nacl": false,
      "ffmpeg_branding": "Chrome",
      "is_component_build": false,
      "is_debug": false,
      "proprietary_codecs": true,
      "symbol_level": 1,
      "use_remoteexec": true
    }
  },
  "gpu-fyi-try-mac-nvidia-retina-rel": {
    "gn_args": {
      "dcheck_always_on": true,
      "enable_nacl": false,
      "ffmpeg_branding": "Chrome",
      "is_component_build": false,
      "is_debug": false,
      "proprietary_codecs": true,
      "symbol_level": 1,
      "use_remoteexec": true
    }
  },
  "gpu-try-mac-amd-retina-dbg": {
    "gn_args": {
      "ffmpeg_branding": "Chrome",
      "is_component_build": true,
      "is_debug": true,
      "proprietary_codecs": true,
      "symbol_level": 1,
      "use_remoteexec": true
    }
  },
  "gpu-try-mac-intel-dbg": {
    "gn_args": {
      "ffmpeg_branding": "Chrome",
      "is_component_build": true,
      "is_debug": true,
      "proprietary_codecs": true,
      "symbol_level": 1,
      "use_goma": true
    }
  },
  "ios-asan": {
    "gn_args": {
      "dcheck_always_on": false,
      "enable_run_ios_unittests_with_xctest": true,
      "is_asan": true,
      "is_component_build": false,
      "is_debug": false,
      "target_cpu": "x64",
      "target_environment": "simulator",
      "target_os": "ios",
      "use_remoteexec": true
    }
  },
  "ios-catalyst": {
    "gn_args": {
      "enable_dsyms": false,
      "enable_remoting": false,
      "is_asan": true,
      "is_component_build": false,
      "is_debug": true,
      "symbol_level": 1,
      "target_cpu": "x64",
      "target_environment": "catalyst",
      "target_os": "ios",
      "use_libfuzzer": true,
      "use_remoteexec": true
    }
  },
  "ios-device": {
    "gn_args": {
      "dcheck_always_on": false,
      "ios_code_signing_identity_description": "Apple Development",
      "ios_enable_code_signing": false,
      "is_component_build": false,
      "is_debug": false,
      "symbol_level": 0,
      "target_cpu": "arm64",
      "target_environment": "device",
      "target_os": "ios",
      "use_remoteexec": true
    }
  },
  "ios-fieldtrial-rel": {
    "gn_args": {
      "enable_run_ios_unittests_with_xctest": true,
      "is_component_build": false,
      "is_debug": true,
      "symbol_level": 1,
      "target_cpu": "arm64",
      "target_environment": "simulator",
      "target_os": "ios",
      "use_remoteexec": true
    }
  },
  "ios-m1-simulator": {
    "gn_args": {
      "enable_run_ios_unittests_with_xctest": true,
      "is_component_build": false,
      "is_debug": true,
      "symbol_level": 1,
      "target_cpu": "arm64",
      "target_environment": "simulator",
      "target_os": "ios",
      "use_goma": true
    }
  },
  "ios-m1-simulator-cronet": {
    "gn_args": {
      "disable_brotli_filter": false,
      "disable_file_support": true,
      "enable_remoting": false,
      "enable_run_ios_unittests_with_xctest": true,
      "enable_websockets": false,
      "include_transport_security_state_preload_list": false,
      "ios_deployment_target": "11.0",
      "ios_stack_profiler_enabled": false,
      "is_component_build": false,
      "is_cronet_build": true,
      "is_debug": true,
      "symbol_level": 1,
      "target_cpu": "arm64",
      "target_environment": "simulator",
      "target_os": "ios",
      "use_allocator_shim": false,
      "use_crash_key_stubs": true,
      "use_partition_alloc": false,
      "use_platform_icu_alternatives": true,
      "use_remoteexec": true
    }
  },
  "ios-simulator": {
    "gn_args": {
      "coverage_instrumentation_input_file": "//.code-coverage/files_to_instrument.txt",
      "enable_run_ios_unittests_with_xctest": true,
      "is_component_build": false,
      "is_debug": true,
      "symbol_level": 1,
      "target_cpu": "x64",
      "target_environment": "simulator",
      "target_os": "ios",
      "use_clang_coverage": true,
      "use_remoteexec": true
    }
  },
  "ios-simulator-code-coverage": {
    "gn_args": {
      "enable_run_ios_unittests_with_xctest": true,
      "is_component_build": false,
      "is_debug": true,
      "symbol_level": 1,
      "target_cpu": "x64",
      "target_environment": "simulator",
      "target_os": "ios",
      "use_clang_coverage": true,
      "use_remoteexec": true
    }
  },
  "ios-simulator-cr-recipe": {
    "gn_args": {
      "enable_run_ios_unittests_with_xctest": true,
      "is_component_build": false,
      "is_debug": true,
      "symbol_level": 1,
      "target_cpu": "x64",
      "target_environment": "simulator",
      "target_os": "ios",
      "use_goma": true
    }
  },
  "ios-simulator-cronet": {
    "gn_args": {
      "disable_brotli_filter": false,
      "disable_file_support": true,
      "enable_remoting": false,
      "enable_run_ios_unittests_with_xctest": true,
      "enable_websockets": false,
      "include_transport_security_state_preload_list": false,
      "ios_deployment_target": "11.0",
      "ios_stack_profiler_enabled": false,
      "is_component_build": false,
      "is_cronet_build": true,
      "is_debug": true,
      "symbol_level": 1,
      "target_cpu": "x64",
      "target_environment": "simulator",
      "target_os": "ios",
      "use_allocator_shim": false,
      "use_crash_key_stubs": true,
      "use_partition_alloc": false,
      "use_platform_icu_alternatives": true,
      "use_remoteexec": true
    }
  },
  "ios-simulator-full-configs": {
    "gn_args": {
      "coverage_instrumentation_input_file": "//.code-coverage/files_to_instrument.txt",
      "enable_run_ios_unittests_with_xctest": true,
      "is_component_build": false,
      "is_debug": true,
      "symbol_level": 1,
      "target_cpu": "x64",
      "target_environment": "simulator",
      "target_os": "ios",
      "use_clang_coverage": true,
      "use_goma": true
    }
  },
  "ios-simulator-inverse-fieldtrials-fyi": {
    "gn_args": {
      "enable_run_ios_unittests_with_xctest": true,
      "invert_fieldtrials": true,
      "is_component_build": false,
      "is_debug": true,
      "symbol_level": 1,
      "target_cpu": "x64",
      "target_environment": "simulator",
      "target_os": "ios",
      "use_remoteexec": true
    }
  },
  "ios-simulator-multi-window": {
    "gn_args": {
      "enable_run_ios_unittests_with_xctest": true,
      "is_component_build": false,
      "is_debug": true,
      "symbol_level": 1,
      "target_cpu": "x64",
      "target_environment": "simulator",
      "target_os": "ios",
      "use_remoteexec": true
    }
  },
  "ios-simulator-noncq": {
    "gn_args": {
      "enable_run_ios_unittests_with_xctest": true,
      "is_component_build": false,
      "is_debug": true,
      "symbol_level": 1,
      "target_cpu": "x64",
      "target_environment": "simulator",
      "target_os": "ios",
      "use_remoteexec": true
    }
  },
  "ios15-beta-simulator": {
    "gn_args": {
      "enable_run_ios_unittests_with_xctest": true,
      "is_component_build": false,
      "is_debug": true,
      "symbol_level": 1,
      "target_cpu": "x64",
      "target_environment": "simulator",
      "target_os": "ios",
      "use_remoteexec": true
    }
  },
  "ios15-sdk-simulator": {
    "gn_args": {
      "enable_run_ios_unittests_with_xctest": true,
      "is_component_build": false,
      "is_debug": true,
      "symbol_level": 1,
      "target_cpu": "x64",
      "target_environment": "simulator",
      "target_os": "ios",
      "use_remoteexec": true
    }
  },
  "ios16-beta-simulator": {
    "gn_args": {
      "enable_run_ios_unittests_with_xctest": true,
      "is_component_build": false,
      "is_debug": true,
      "symbol_level": 1,
      "target_cpu": "x64",
      "target_environment": "simulator",
      "target_os": "ios",
      "use_remoteexec": true
    }
  },
  "ios16-sdk-simulator": {
    "gn_args": {
      "enable_run_ios_unittests_with_xctest": true,
      "is_component_build": false,
      "is_debug": true,
      "symbol_level": 1,
      "target_cpu": "x64",
      "target_environment": "simulator",
      "target_os": "ios",
      "use_remoteexec": true
    }
  },
  "mac-arm64-on-arm64-rel": {
    "gn_args": {
      "dcheck_always_on": true,
      "is_component_build": false,
      "is_debug": false,
      "symbol_level": 0,
      "target_cpu": "arm64",
      "use_remoteexec": true
    }
  },
  "mac-builder-next-rel": {
    "gn_args": {
      "dcheck_always_on": false,
      "enable_nacl": false,
      "ffmpeg_branding": "Chrome",
      "is_component_build": false,
      "is_debug": false,
      "proprietary_codecs": true,
      "symbol_level": 1,
      "target_cpu": "arm64",
      "use_remoteexec": true
    }
  },
  "mac-code-coverage": {
    "gn_args": {
      "dcheck_always_on": false,
      "ffmpeg_branding": "Chrome",
      "is_clang": true,
      "is_component_build": false,
      "is_debug": false,
      "proprietary_codecs": true,
      "symbol_level": 0,
      "use_clang_coverage": true,
      "use_remoteexec": true
    }
  },
  "mac-fieldtrial-tester": {
    "gn_args": {
      "dcheck_always_on": false,
      "enable_nacl": false,
      "ffmpeg_branding": "Chrome",
      "is_component_build": false,
      "is_debug": false,
      "proprietary_codecs": true,
      "symbol_level": 1,
      "target_cpu": "arm64",
      "use_remoteexec": true
    }
  },
  "mac-inverse-fieldtrials-fyi-rel": {
    "gn_args": {
      "dcheck_always_on": true,
      "ffmpeg_branding": "Chrome",
      "invert_fieldtrials": true,
      "is_component_build": false,
      "is_debug": false,
      "proprietary_codecs": true,
      "symbol_level": 0,
      "use_goma": true
    }
  },
  "mac-osxbeta-rel": {
    "gn_args": {
      "dcheck_always_on": true,
      "ffmpeg_branding": "Chrome",
      "is_component_build": false,
      "is_debug": true,
      "proprietary_codecs": true,
      "symbol_level": 0,
      "use_remoteexec": true
    }
  },
  "mac-perfetto-rel": {
    "gn_args": {
      "dcheck_always_on": true,
      "is_component_build": false,
      "is_debug": false,
      "symbol_level": 0,
      "use_perfetto_client_library": true,
      "use_remoteexec": true
    }
  },
  "mac-rel": {
    "gn_args": {
      "coverage_instrumentation_input_file": "//.code-coverage/files_to_instrument.txt",
      "dcheck_always_on": true,
      "ffmpeg_branding": "Chrome",
      "is_component_build": false,
      "is_debug": false,
      "proprietary_codecs": true,
      "symbol_level": 0,
      "use_clang_coverage": true,
      "use_goma": true
    }
  },
  "mac10.15-wpt-content-shell-fyi-rel": {
    "gn_args": {
      "dcheck_always_on": true,
      "is_component_build": false,
      "is_debug": false,
      "symbol_level": 1,
      "use_remoteexec": true
    }
  },
  "mac11-arm64-rel": {
    "gn_args": {
      "dcheck_always_on": true,
      "ffmpeg_branding": "Chrome",
      "is_component_build": false,
      "is_debug": false,
      "proprietary_codecs": true,
      "symbol_level": 0,
      "target_cpu": "arm64",
      "use_remoteexec": true
    }
  },
  "mac11-wpt-content-shell-fyi-rel": {
    "gn_args": {
      "dcheck_always_on": true,
      "is_component_build": false,
      "is_debug": false,
      "symbol_level": 1,
      "use_remoteexec": true
    }
  },
  "mac12-arm64-rel": {
    "gn_args": {
      "dcheck_always_on": true,
      "ffmpeg_branding": "Chrome",
      "is_component_build": false,
      "is_debug": false,
      "proprietary_codecs": true,
      "symbol_level": 0,
      "target_cpu": "arm64",
      "use_remoteexec": true
    }
  },
  "mac12-arm64-wpt-content-shell-fyi-rel": {
    "gn_args": {
      "dcheck_always_on": true,
      "is_component_build": false,
      "is_debug": false,
      "symbol_level": 1,
      "use_remoteexec": true
    }
  },
  "mac12-tests": {
    "gn_args": {
      "dcheck_always_on": true,
      "is_component_build": false,
      "is_debug": false,
      "symbol_level": 0,
      "use_remoteexec": true
    }
  },
  "mac12-wpt-content-shell-fyi-rel": {
    "gn_args": {
      "dcheck_always_on": true,
      "is_component_build": false,
      "is_debug": false,
      "symbol_level": 1,
      "use_remoteexec": true
    }
  },
  "mac13-arm64-wpt-content-shell-fyi-rel": {
    "gn_args": {
      "dcheck_always_on": true,
      "is_component_build": false,
      "is_debug": false,
      "symbol_level": 1,
      "use_remoteexec": true
    }
  },
  "mac13-wpt-content-shell-fyi-rel": {
    "gn_args": {
      "dcheck_always_on": true,
      "is_component_build": false,
      "is_debug": false,
      "symbol_level": 1,
      "use_remoteexec": true
    }
  },
  "mac_chromium_10.13_rel_ng": {
    "gn_args": {
      "dcheck_always_on": true,
      "is_component_build": false,
      "is_debug": false,
      "symbol_level": 0,
      "use_goma": true
    }
  },
  "mac_chromium_10.14_rel_ng": {
    "gn_args": {
      "dcheck_always_on": true,
      "is_component_build": false,
      "is_debug": false,
      "symbol_level": 0,
      "use_remoteexec": true
    }
  },
  "mac_chromium_10.15_rel_ng": {
    "gn_args": {
      "dcheck_always_on": true,
      "enable_nacl": false,
      "is_component_build": false,
      "is_debug": false,
      "symbol_level": 0,
      "use_remoteexec": true
    }
  },
  "mac_chromium_11.0_rel_ng": {
    "gn_args": {
      "dcheck_always_on": true,
      "is_component_build": false,
      "is_debug": false,
      "symbol_level": 0,
      "use_remoteexec": true
    }
  },
  "mac_chromium_archive_rel_ng": {
    "gn_args": {
      "dcheck_always_on": false,
      "enable_stripping": true,
      "is_component_build": false,
      "is_debug": false,
      "symbol_level": 1,
      "use_remoteexec": true
    }
  },
  "mac_chromium_asan_rel_ng": {
    "gn_args": {
      "dcheck_always_on": false,
      "enable_nacl": false,
      "is_asan": true,
      "is_component_build": false,
      "is_debug": false,
      "use_remoteexec": true
    }
  },
  "mac_chromium_compile_dbg_ng": {
    "gn_args": {
      "ffmpeg_branding": "Chrome",
      "is_component_build": true,
      "is_debug": true,
      "proprietary_codecs": true,
      "symbol_level": 1,
      "use_goma": true
    }
  },
  "mac_chromium_compile_rel_ng": {
    "gn_args": {
      "dcheck_always_on": true,
      "ffmpeg_branding": "Chrome",
      "is_component_build": false,
      "is_debug": false,
      "proprietary_codecs": true,
      "symbol_level": 0,
      "use_remoteexec": true
    }
  },
  "mac_chromium_dbg_ng": {
    "gn_args": {
      "ffmpeg_branding": "Chrome",
      "is_component_build": true,
      "is_debug": true,
      "proprietary_codecs": true,
      "symbol_level": 1,
      "use_remoteexec": true
    }
  },
  "mac_optional_gpu_tests_rel": {
    "gn_args": {
      "dcheck_always_on": true,
      "enable_nacl": false,
      "ffmpeg_branding": "Chrome",
      "is_component_build": false,
      "is_debug": false,
      "proprietary_codecs": true,
      "symbol_level": 1,
      "use_remoteexec": true
    }
  },
  "mac_upload_clang": {
    "gn_args": {
      "dcheck_always_on": false,
      "is_component_build": false,
      "is_debug": false,
      "use_goma": true
    }
  },
  "mac_upload_clang_arm": {
    "gn_args": {
      "dcheck_always_on": false,
      "is_component_build": false,
      "is_debug": false,
      "use_goma": true
    }
  }
}